 grid=1,core;
 grid=2,model;

 levels=1,eta,-1;
 levels=2,pres,[1000.,925.,850.,775.,700.,600.,500.,400.,300.,250.,200.,150.,100.,70.,50.,30.,20.,15.,10.,6.,4.,2.,1.];

 steps=1,hour,outfreq;
 steps=2,hour,<0,laststep,6>;
 steps=3,hour,<0,laststep,24>;
 steps=4,hour,<0,laststep_m1,6>;
 steps=5,hour,<0,laststep_m1,24>;
 steps=6,hour,laststep;
 steps=7,month,<0,24000,1>;

 sortie([ME,P0,PN,TT,GZ,HU,HR,UU,VV,WW,APM,APT]                              , grid, 1, levels, 1, steps, 4)

 sortie([SSA,SSC,DUA,DUC,DMS,SO2,SO4,BCO,BCY,OCO,OCY,CO2]                    , grid, 1, levels, 1, steps, 5)

 sortie([ME,P0,PN,TT,GZ,HU,HR,UU,VV,WW,APM,APT,
         SSA,SSC,DUA,DUC,DMS,SO2,SO4,BCO,BCY,OCO,OCY,CO2]                    , grid, 2, levels, 1, steps, 6)

 sortie_p([LA,LO,FLND,FLKU,FLKR,DZG,PORG]                                    , grid, 1, levels, 1, steps, 1)

 sortie_p([SICN,TBAS,GTO,GTA,SNO,SIC,AN,RHON,TV,TN,WVL,WVF,MV,TFX,GR,
           QFX,CHFX,CQFX,FTOX,FTOY,TDOX,TDOY,
           GTL,PBLT,TCV,PBLH,SALB,TG,WGL,WGF,
           CVEG,CDEB,CHUM,CLAI,CVGL,CVGS,CVGR,CURF,FARE]                     , grid, 1, levels, 1, steps, 2)

 sortie_p([DZG,PORG,LWC,IWC,HPO,H2O,CLD,TACN,RH,CLW,CIC,CVAR,OMET,ALMC,ALMX,
           STMX,STMN,SRHN,SRHX,SWX,SWXU,SWXV]                                , grid, 1, levels, 1, steps, 3)

 sortie_p([SRH,SWA,PWAT,QTPH,QTPF,DR,FSO,FSG,FSD,FSV,FSS,FSSC,FDLC,
           FDL,FLG,FSLO,CLDT,CLDO,FSGC,FLGC,FN,SMLT,CLWT,CICT,HFL,HFS,PCP,
           PCPC,PIVF,PCPN,PIVL,PIN,PIG,QFS,BEG,BWG,UFS,VFS,ST,SQ,SU,SV,
           FSDC,FSGV,FSGG,FLGV,FLGG,HFSV,HFSG,HFSN,HMFV,HMFN,HFCV,HFCN,
           QFG,QFN,QFVL,QFVF,BCD,BCS,CAPE,CDCB,CINH,CSCB,TCD,TCS,
           FSGN,FLGN,ROF,ROFV,ROFN,ROFO,ROVG,WTRV,WTRN,WTRG,OUFS,OVFS,
           HFLV,HFLN,HFLG,ZN,PSA,FVN,DD4,DD6,DDB,DDD,DDO,DDS,DOX4,
           FVG,SKYG,SKYN,HFCG,QFVG,HMFG,RFOL,SWAL,PSLL,BEGL,BEGK,BEGO,BEGI,
           DOXD,EAIB,ESVE,NOXD,SDHP,SDO3,SLHP,SLO3,SSHP,SSO3]               , grid, 1, levels, 1, steps, 2, accum)
 sortie_p([EAIO,EAIS,EDSL,EDSO ,ESD,ESFB,ESFO,ESFS,ESTB,ESTO,ESTS,ESVC,
           WDD4,WDD6,WDDB,WDDD,WDDO,WDDS,WDL4,WDL6,WDLB,WDLD,WDLO,WDLS,
           WDS4,WDS6,WDSB,WDSD,WDSO,WDSS,
           FSR,FSRC,OLR,OLRC,FSAM,FLAM,FSAN,FLAN,
           OFSG,HSEA,WSNO,ZPND,GA,GFLX,HBL,ILMO,PET,ROFB,ROFS,UE,WTAB,
           CFNP,CFNE,CFRV,CFGP,CFNB,CFFV,CFFD,CFLV,CFLD,CFLH,CBRN,CFRH,
           CFHT,CFLF,CFRD,CFRG,CFRM,CFNL,CFNS,CFNR,CH4H,CH4N,WFRA,CW1D,
           CW2D,FCOL,BRFR,C3CR,C4CR,CRPF,C3GR,C4GR,GRSF,BDTF,BETF,NDTF,
           NETF,TREE,VEGF,C3PF,C4PF,CLND]                                    , grid, 1, levels, 1, steps, 2, accum)

 sortie_p([DMC,DMCD,DMCU,SMC]                                                , grid, 1, levels, 1, steps, 3, accum)

 sortie_p([PWM,QHM,QFM,QTM]                                                  , grid, 1, levels, 1, steps, 7, accum)

